…
| Package   | Data Type       |
| --------- | --------------- |
| forcats   | factors         |
| stringr   | strings         |
| hms       | times           |
| lubridate | dates and times |

# Babynames

``` r
babynames
```

    ## # A tibble: 1,924,665 x 5
    ##     year sex   name          n   prop
    ##    <dbl> <chr> <chr>     <int>  <dbl>
    ##  1  1880 F     Mary       7065 0.0724
    ##  2  1880 F     Anna       2604 0.0267
    ##  3  1880 F     Emma       2003 0.0205
    ##  4  1880 F     Elizabeth  1939 0.0199
    ##  5  1880 F     Minnie     1746 0.0179
    ##  6  1880 F     Margaret   1578 0.0162
    ##  7  1880 F     Ida        1472 0.0151
    ##  8  1880 F     Alice      1414 0.0145
    ##  9  1880 F     Bertha     1320 0.0135
    ## 10  1880 F     Sarah      1288 0.0132
    ## # … with 1,924,655 more rows

``` r
print(babynames) 
```

    ## # A tibble: 1,924,665 x 5
    ##     year sex   name          n   prop
    ##    <dbl> <chr> <chr>     <int>  <dbl>
    ##  1  1880 F     Mary       7065 0.0724
    ##  2  1880 F     Anna       2604 0.0267
    ##  3  1880 F     Emma       2003 0.0205
    ##  4  1880 F     Elizabeth  1939 0.0199
    ##  5  1880 F     Minnie     1746 0.0179
    ##  6  1880 F     Margaret   1578 0.0162
    ##  7  1880 F     Ida        1472 0.0151
    ##  8  1880 F     Alice      1414 0.0145
    ##  9  1880 F     Bertha     1320 0.0135
    ## 10  1880 F     Sarah      1288 0.0132
    ## # … with 1,924,655 more rows
…
skim\_with() is a closure: a function that returns a new function. This
lets you have several skimming functions in a single R session, but it
also means that you need to assign the return of skim\_with() before you
can use it.

# Mastering dplyr verbs

## Select

``` r
select(babynames, name, prop)
```

    ## # A tibble: 1,924,665 x 2
    ##    name        prop
    ##    <chr>      <dbl>
    ##  1 Mary      0.0724
    ##  2 Anna      0.0267
    ##  3 Emma      0.0205
    ##  4 Elizabeth 0.0199
    ##  5 Minnie    0.0179
    ##  6 Margaret  0.0162
    ##  7 Ida       0.0151
    ##  8 Alice     0.0145
    ##  9 Bertha    0.0135
    ## 10 Sarah     0.0132
    ## # … with 1,924,655 more rows

## Your Turn 5

Alter the code to select just the `n` column:

``` r
select(babynames, n)
```

    ## # A tibble: 1,924,665 x 1
    ##        n
    ##    <int>
    ##  1  7065
    ##  2  2604
    ##  3  2003
    ##  4  1939
    ##  5  1746
    ##  6  1578
    ##  7  1472
    ##  8  1414
    ##  9  1320
    ## 10  1288
    ## # … with 1,924,655 more rows

## Consider

Which of these is NOT a way to select the `name` and `n` columns
together?

``` r
select(babynames, -c(year, sex, prop))
```

    ## # A tibble: 1,924,665 x 2
    ##    name          n
    ##    <chr>     <int>
    ##  1 Mary       7065
    ##  2 Anna       2604
    ##  3 Emma       2003
    ##  4 Elizabeth  1939
    ##  5 Minnie     1746
    ##  6 Margaret   1578
    ##  7 Ida        1472
    ##  8 Alice      1414
    ##  9 Bertha     1320
    ## 10 Sarah      1288
    ## # … with 1,924,655 more rows

``` r
select(babynames, name:n)
```

    ## # A tibble: 1,924,665 x 2
    ##    name          n
    ##    <chr>     <int>
    ##  1 Mary       7065
    ##  2 Anna       2604
    ##  3 Emma       2003
    ##  4 Elizabeth  1939
    ##  5 Minnie     1746
    ##  6 Margaret   1578
    ##  7 Ida        1472
    ##  8 Alice      1414
    ##  9 Bertha     1320
    ## 10 Sarah      1288
    ## # … with 1,924,655 more rows

``` r
select(babynames, starts_with("n"))
```

    ## # A tibble: 1,924,665 x 2
    ##    name          n
    ##    <chr>     <int>
    ##  1 Mary       7065
    ##  2 Anna       2604
    ##  3 Emma       2003
    ##  4 Elizabeth  1939
    ##  5 Minnie     1746
    ##  6 Margaret   1578
    ##  7 Ida        1472
    ##  8 Alice      1414
    ##  9 Bertha     1320
    ## 10 Sarah      1288
    ## # … with 1,924,655 more rows

``` r
select(babynames, ends_with("n"))
```

    ## # A tibble: 1,924,665 x 1
    ##        n
    ##    <int>
    ##  1  7065
    ##  2  2604
    ##  3  2003
    ##  4  1939
    ##  5  1746
    ##  6  1578
    ##  7  1472
    ##  8  1414
    ##  9  1320
    ## 10  1288
    ## # … with 1,924,655 more rows

## Filter

``` r
filter(babynames, name == "Amelia")
```

    ## # A tibble: 169 x 5
    ##     year sex   name       n    prop
    ##    <dbl> <chr> <chr>  <int>   <dbl>
    ##  1  1880 F     Amelia   221 0.00226
    ##  2  1881 F     Amelia   235 0.00238
    ##  3  1882 F     Amelia   252 0.00218
    ##  4  1883 F     Amelia   262 0.00218
    ##  5  1884 F     Amelia   315 0.00229
    ##  6  1885 F     Amelia   298 0.00210
    ##  7  1886 F     Amelia   326 0.00212
    ##  8  1887 F     Amelia   344 0.00221
    ##  9  1888 F     Amelia   358 0.00189
    ## 10  1889 F     Amelia   346 0.00183
    ## # … with 159 more rows
…
``` r
filter(babynames, name == "Sea", sex == "F")
```

    ## # A tibble: 2 x 5
    ##    year sex   name      n       prop
    ##   <dbl> <chr> <chr> <int>      <dbl>
    ## 1  1982 F     Sea       5 0.00000276
    ## 2  1998 F     Sea       5 0.00000258

``` r
filter(babynames, n == 5 | n == 6, year == 1880)
```

    ## # A tibble: 455 x 5
    ##     year sex   name        n      prop
    ##    <dbl> <chr> <chr>   <int>     <dbl>
    ##  1  1880 F     Abby        6 0.0000615
    ##  2  1880 F     Aileen      6 0.0000615
    ##  3  1880 F     Alba        6 0.0000615
    ##  4  1880 F     Alda        6 0.0000615
    ##  5  1880 F     Alla        6 0.0000615
    ##  6  1880 F     Alverta     6 0.0000615
    ##  7  1880 F     Ara         6 0.0000615
    ##  8  1880 F     Ardelia     6 0.0000615
    ##  9  1880 F     Ardella     6 0.0000615
    ## 10  1880 F     Arrie       6 0.0000615
    ## # … with 445 more rows

``` r
filter(babynames, name %in% c("Acura", "Lexus", "Yugo"))
```

    ## # A tibble: 57 x 5
    ##     year sex   name      n       prop
    ##    <dbl> <chr> <chr> <int>      <dbl>
    ##  1  1990 F     Lexus    36 0.0000175 
    ##  2  1990 M     Lexus    12 0.00000558
    ##  3  1991 F     Lexus   102 0.0000502 
    ##  4  1991 M     Lexus    16 0.00000755
    ##  5  1992 F     Lexus   193 0.0000963 
    ##  6  1992 M     Lexus    25 0.0000119 
    ##  7  1993 F     Lexus   285 0.000145  
    ##  8  1993 M     Lexus    30 0.0000145 
    ##  9  1994 F     Lexus   381 0.000195  
    ## 10  1994 F     Acura     6 0.00000308
    ## # … with 47 more rows

## Arrange

``` r
arrange(babynames, n)
```

    ## # A tibble: 1,924,665 x 5
    ##     year sex   name          n      prop
    ##    <dbl> <chr> <chr>     <int>     <dbl>
    ##  1  1880 F     Adelle        5 0.0000512
    ##  2  1880 F     Adina         5 0.0000512
    ##  3  1880 F     Adrienne      5 0.0000512
    ##  4  1880 F     Albertine     5 0.0000512
    ##  5  1880 F     Alys          5 0.0000512
    ##  6  1880 F     Ana           5 0.0000512
    ##  7  1880 F     Araminta      5 0.0000512
    ##  8  1880 F     Arthur        5 0.0000512
    ##  9  1880 F     Birtha        5 0.0000512
    ## 10  1880 F     Bulah         5 0.0000512
    ## # … with 1,924,655 more rows

## Your Turn 8

Arrange babynames by `n`. Add `prop` as a second (tie breaking) variable
to arrange on. Can you tell what the smallest value of `n` is?

``` r
arrange(babynames, n, prop)
```

    ## # A tibble: 1,924,665 x 5
    ##     year sex   name            n       prop
    ##    <dbl> <chr> <chr>       <int>      <dbl>
    ##  1  2007 M     Aaban           5 0.00000226
    ##  2  2007 M     Aareon          5 0.00000226
    ##  3  2007 M     Aaris           5 0.00000226
    ##  4  2007 M     Abd             5 0.00000226
    ##  5  2007 M     Abdulazeez      5 0.00000226
    ##  6  2007 M     Abdulhadi       5 0.00000226
    ##  7  2007 M     Abdulhamid      5 0.00000226
    ##  8  2007 M     Abdulkadir      5 0.00000226
    ##  9  2007 M     Abdulraheem     5 0.00000226
    ## 10  2007 M     Abdulrahim      5 0.00000226
    ## # … with 1,924,655 more rows

## desc

``` r
arrange(babynames, desc(n))
```

    ## # A tibble: 1,924,665 x 5
    ##     year sex   name        n   prop
    ##    <dbl> <chr> <chr>   <int>  <dbl>
    ##  1  1947 F     Linda   99686 0.0548
    ##  2  1948 F     Linda   96209 0.0552
    ##  3  1947 M     James   94756 0.0510
    ##  4  1957 M     Michael 92695 0.0424
    ##  5  1947 M     Robert  91642 0.0493
    ##  6  1949 F     Linda   91016 0.0518
    ##  7  1956 M     Michael 90620 0.0423
    ##  8  1958 M     Michael 90520 0.0420
    ##  9  1948 M     James   88588 0.0497
    ## 10  1954 M     Michael 88514 0.0428
    ## # … with 1,924,655 more rows

## Your Turn 9

Use `desc()` to find the names with the highest prop. Then, use `desc()`
to find the names with the highest n.

``` r
arrange(babynames, desc(prop))
```

    ## # A tibble: 1,924,665 x 5
    ##     year sex   name        n   prop
    ##    <dbl> <chr> <chr>   <int>  <dbl>
    ##  1  1880 M     John     9655 0.0815
    ##  2  1881 M     John     8769 0.0810
    ##  3  1880 M     William  9532 0.0805
    ##  4  1883 M     John     8894 0.0791
    ##  5  1881 M     William  8524 0.0787
    ##  6  1882 M     John     9557 0.0783
    ##  7  1884 M     John     9388 0.0765
    ##  8  1882 M     William  9298 0.0762
    ##  9  1886 M     John     9026 0.0758
    ## 10  1885 M     John     8756 0.0755
    ## # … with 1,924,655 more rows

``` r
arrange(babynames, desc(n))
```

    ## # A tibble: 1,924,665 x 5
    ##     year sex   name        n   prop
    ##    <dbl> <chr> <chr>   <int>  <dbl>
    ##  1  1947 F     Linda   99686 0.0548
    ##  2  1948 F     Linda   96209 0.0552
    ##  3  1947 M     James   94756 0.0510
    ##  4  1957 M     Michael 92695 0.0424
    ##  5  1947 M     Robert  91642 0.0493
    ##  6  1949 F     Linda   91016 0.0518
    ##  7  1956 M     Michael 90620 0.0423
    ##  8  1958 M     Michael 90520 0.0420
    ##  9  1948 M     James   88588 0.0497
    ## 10  1954 M     Michael 88514 0.0428
    ## # … with 1,924,655 more rows

## Steps and *the pipe*

``` r
babynames %>%
  filter(year == 2015, sex == "M") %>%
  select(name, n) %>%
  arrange(desc(n))
```

    ## # A tibble: 14,024 x 2
    ##    name          n
    ##    <chr>     <int>
    ##  1 Noah      19613
    ##  2 Liam      18355
    ##  3 Mason     16610
    ##  4 Jacob     15938
    ##  5 William   15889
    ##  6 Ethan     15069
    ##  7 James     14799
    ##  8 Alexander 14531
    ##  9 Michael   14413
    ## 10 Benjamin  13692
    ## # … with 14,014 more rows
…
1.  Filter babynames to just the girls that were born in 2015  
2.  Select the `name` and `n` columns  
3.  Arrange the results so that the most popular names are near the top.

<!-- end list -->

``` r
babynames %>% 
  filter(year == 2015, sex == "F") %>% 
  select(name, n) %>% 
  arrange(desc(n))
```

    ## # A tibble: 19,074 x 2
    ##    name          n
    ##    <chr>     <int>
    ##  1 Emma      20435
    ##  2 Olivia    19669
    ##  3 Sophia    17402
    ##  4 Ava       16361
    ##  5 Isabella  15594
    ##  6 Mia       14892
    ##  7 Abigail   12390
    ##  8 Emily     11780
    ##  9 Charlotte 11390
    ## 10 Harper    10291
    ## # … with 19,064 more rows
…
## Your Turn 14

Use `group_by()`, `summarise()`, and `arrange()` to display the ten most
popular baby names. Compute popularity as the total number of children
of a single gender given a name.

``` r
babynames %>%
  group_by(name, sex) %>% 
  summarise(total = sum(n)) %>% 
  arrange(desc(total))
```

    ## # A tibble: 107,973 x 3
    ## # Groups:   name [97,310]
    ##    name    sex     total
    ##    <chr>   <chr>   <int>
    ##  1 James   M     5150472
    ##  2 John    M     5115466
    ##  3 Robert  M     4814815
    ##  4 Michael M     4350824
    ##  5 Mary    F     4123200
    ##  6 William M     4102604
    ##  7 David   M     3611329
    ##  8 Joseph  M     2603445
    ##  9 Richard M     2563082
    ## 10 Charles M     2386048
    ## # … with 107,963 more rows
…
## Ungroup

``` r
babynames %>%
  group_by(name, sex) %>% 
  summarise(total = sum(n)) %>% 
  arrange(desc(total))
```

    ## # A tibble: 107,973 x 3
    ## # Groups:   name [97,310]
    ##    name    sex     total
    ##    <chr>   <chr>   <int>
    ##  1 James   M     5150472
    ##  2 John    M     5115466
    ##  3 Robert  M     4814815
    ##  4 Michael M     4350824
    ##  5 Mary    F     4123200
    ##  6 William M     4102604
    ##  7 David   M     3611329
    ##  8 Joseph  M     2603445
    ##  9 Richard M     2563082
    ## 10 Charles M     2386048
    ## # … with 107,963 more rows

## Mutate

``` r
babynames %>%
  mutate(percent = round(prop*100, 2))
```

    ## # A tibble: 1,924,665 x 6
    ##     year sex   name          n   prop percent
    ##    <dbl> <chr> <chr>     <int>  <dbl>   <dbl>
    ##  1  1880 F     Mary       7065 0.0724    7.24
    ##  2  1880 F     Anna       2604 0.0267    2.67
    ##  3  1880 F     Emma       2003 0.0205    2.05
    ##  4  1880 F     Elizabeth  1939 0.0199    1.99
    ##  5  1880 F     Minnie     1746 0.0179    1.79
    ##  6  1880 F     Margaret   1578 0.0162    1.62
    ##  7  1880 F     Ida        1472 0.0151    1.51
    ##  8  1880 F     Alice      1414 0.0145    1.45
    ##  9  1880 F     Bertha     1320 0.0135    1.35
    ## 10  1880 F     Sarah      1288 0.0132    1.32
    ## # … with 1,924,655 more rows

## Your Turn 16

Use `min_rank()` and `mutate()` to rank each row in `babynames` from
largest `n` to lowest `n`.

``` r
babynames %>% 
  mutate(rank = min_rank(desc(prop)))
```

    ## # A tibble: 1,924,665 x 6
    ##     year sex   name          n   prop  rank
    ##    <dbl> <chr> <chr>     <int>  <dbl> <int>
    ##  1  1880 F     Mary       7065 0.0724    14
    ##  2  1880 F     Anna       2604 0.0267   709
    ##  3  1880 F     Emma       2003 0.0205  1131
    ##  4  1880 F     Elizabeth  1939 0.0199  1192
    ##  5  1880 F     Minnie     1746 0.0179  1427
    ##  6  1880 F     Margaret   1578 0.0162  1683
    ##  7  1880 F     Ida        1472 0.0151  1897
    ##  8  1880 F     Alice      1414 0.0145  2039
    ##  9  1880 F     Bertha     1320 0.0135  2279
    ## 10  1880 F     Sarah      1288 0.0132  2387
    ## # … with 1,924,655 more rows
…
Compute each name’s rank *within its year and sex*. Then compute the
median rank *for each combination of name and sex*, and arrange the
results from highest median rank to lowest.

``` r
babynames %>% 
  group_by(year, sex) %>% 
  mutate(rank = min_rank(desc(prop))) %>% 
  group_by(name, sex) %>% 
  summarise(score = median(rank)) %>% 
  arrange(score)
```

    ## # A tibble: 107,973 x 3
    ## # Groups:   name [97,310]
    ##    name      sex   score
    ##    <chr>     <chr> <dbl>
    ##  1 Mary      F       1  
    ##  2 James     M       3  
    ##  3 John      M       3  
    ##  4 William   M       4  
    ##  5 Robert    M       6  
    ##  6 Michael   M       7.5
    ##  7 Charles   M       9  
    ##  8 Elizabeth F      10  
    ##  9 Joseph    M      10  
    ## 10 Thomas    M      11  
    ## # … with 107,963 more rows
…
    ## 
    ## Attaching package: 'lubridate'

    ## The following object is masked from 'package:base':
    ## 
    ##     date

## Flights data

``` r
flights
```

    ## # A tibble: 336,776 x 19
    ##     year month   day dep_time sched_dep_time dep_delay arr_time sched_arr_time
    ##    <int> <int> <int>    <int>          <int>     <dbl>    <int>          <int>
    ##  1  2013     1     1      517            515         2      830            819
    ##  2  2013     1     1      533            529         4      850            830
    ##  3  2013     1     1      542            540         2      923            850
    ##  4  2013     1     1      544            545        -1     1004           1022
    ##  5  2013     1     1      554            600        -6      812            837
    ##  6  2013     1     1      554            558        -4      740            728
    ##  7  2013     1     1      555            600        -5      913            854
    ##  8  2013     1     1      557            600        -3      709            723
    ##  9  2013     1     1      557            600        -3      838            846
    ## 10  2013     1     1      558            600        -2      753            745
    ## # … with 336,766 more rows, and 11 more variables: arr_delay <dbl>,
    ## #   carrier <chr>, flight <int>, tailnum <chr>, origin <chr>, dest <chr>,
    ## #   air_time <dbl>, distance <dbl>, hour <dbl>, minute <dbl>, time_hour <dttm>
…
## Different names of variable columns

``` r
airports %>% left_join(flights, by = c("faa" = "dest"))
```

    ## # A tibble: 330,531 x 26
    ##    faa   name    lat    lon   alt    tz dst   tzone  year month   day dep_time
    ##    <chr> <chr> <dbl>  <dbl> <dbl> <dbl> <chr> <chr> <int> <int> <int>    <int>
    ##  1 04G   Lans…  41.1  -80.6  1044    -5 A     Amer…    NA    NA    NA       NA
    ##  2 06A   Moto…  32.5  -85.7   264    -6 A     Amer…    NA    NA    NA       NA
    ##  3 06C   Scha…  42.0  -88.1   801    -6 A     Amer…    NA    NA    NA       NA
    ##  4 06N   Rand…  41.4  -74.4   523    -5 A     Amer…    NA    NA    NA       NA
    ##  5 09J   Jeky…  31.1  -81.4    11    -5 A     Amer…    NA    NA    NA       NA
    ##  6 0A9   Eliz…  36.4  -82.2  1593    -5 A     Amer…    NA    NA    NA       NA
    ##  7 0G6   Will…  41.5  -84.5   730    -5 A     Amer…    NA    NA    NA       NA
    ##  8 0G7   Fing…  42.9  -76.8   492    -5 A     Amer…    NA    NA    NA       NA
    ##  9 0P2   Shoe…  39.8  -76.6  1000    -5 U     Amer…    NA    NA    NA       NA
    ## 10 0S9   Jeff…  48.1 -123.    108    -8 A     Amer…    NA    NA    NA       NA
    ## # … with 330,521 more rows, and 14 more variables: sched_dep_time <int>,
    ## #   dep_delay <dbl>, arr_time <int>, sched_arr_time <int>, arr_delay <dbl>,
    ## #   carrier <chr>, flight <int>, tailnum <chr>, origin <chr>, air_time <dbl>,
    ## #   distance <dbl>, hour <dbl>, minute <dbl>, time_hour <dttm>
…
Find the average delay by destination airport. Find the average delay by
*origin* airport.

``` r
flights %>%
  drop_na(arr_delay) %>%
  group_by(dest) %>% 
  summarise(delay = mean(arr_delay)) %>%
  left_join(airports, by = c("dest" = "faa")) %>%
  select(name, delay) %>%
  arrange(desc(delay))
```

    ## # A tibble: 104 x 2
    ##    name                          delay
    ##    <chr>                         <dbl>
    ##  1 Columbia Metropolitan          41.8
    ##  2 Tulsa Intl                     33.7
    ##  3 Will Rogers World              30.6
    ##  4 Jackson Hole Airport           28.1
    ##  5 Mc Ghee Tyson                  24.1
    ##  6 Dane Co Rgnl Truax Fld         20.2
    ##  7 Richmond Intl                  20.1
    ##  8 Akron Canton Regional Airport  19.7
    ##  9 Des Moines Intl                19.0
    ## 10 Gerald R Ford Intl             18.2
    ## # … with 94 more rows
…
## Your Turn 20

How many airports in `airports` are serviced by flights originating in
New York (i.e. flights in our dataset?) Notice that the column to join
on is named `faa` in the **airports** data set and `dest` in the
**flights** data set.

``` r
airports %>%
  semi_join(flights, by = c("faa" = "dest")) %>%
  distinct(faa)
```

    ## # A tibble: 101 x 1
    ##    faa  
    ##    <chr>
    ##  1 ABQ  
    ##  2 ACK  
    ##  3 ALB  
    ##  4 ANC  
    ##  5 ATL  
    ##  6 AUS  
    ##  7 AVL  
    ##  8 BDL  
    ##  9 BGR  
    ## 10 BHM  
    ## # … with 91 more rows
…
