Working with Tidyverse
…
stringr
strings

hms
times

lubridate
dates and times

Babynames

babynames

## # A tibble: 1,924,665 x 5
##     year sex   name          n   prop
##    <dbl> <chr> <chr>     <int>  <dbl>
##  1  1880 F     Mary       7065 0.0724
##  2  1880 F     Anna       2604 0.0267
##  3  1880 F     Emma       2003 0.0205
##  4  1880 F     Elizabeth  1939 0.0199
##  5  1880 F     Minnie     1746 0.0179
##  6  1880 F     Margaret   1578 0.0162
##  7  1880 F     Ida        1472 0.0151
##  8  1880 F     Alice      1414 0.0145
##  9  1880 F     Bertha     1320 0.0135
## 10  1880 F     Sarah      1288 0.0132
## #  with 1,924,655 more rows

print(babynames) 

## # A tibble: 1,924,665 x 5
##     year sex   name          n   prop
##    <dbl> <chr> <chr>     <int>  <dbl>
##  1  1880 F     Mary       7065 0.0724
##  2  1880 F     Anna       2604 0.0267
##  3  1880 F     Emma       2003 0.0205
##  4  1880 F     Elizabeth  1939 0.0199
##  5  1880 F     Minnie     1746 0.0179
##  6  1880 F     Margaret   1578 0.0162
##  7  1880 F     Ida        1472 0.0151
##  8  1880 F     Alice      1414 0.0145
##  9  1880 F     Bertha     1320 0.0135
## 10  1880 F     Sarah      1288 0.0132
## #  with 1,924,655 more rows
…
skim_with() is a closure: a function that returns a new function. This lets you have several skimming functions in a single R session, but it also means that you need to assign the return of skim_with() before you can use it.

Mastering dplyr verbs

Select

select(babynames, name, prop)

## # A tibble: 1,924,665 x 2
##    name        prop
##    <chr>      <dbl>
##  1 Mary      0.0724
##  2 Anna      0.0267
##  3 Emma      0.0205
##  4 Elizabeth 0.0199
##  5 Minnie    0.0179
##  6 Margaret  0.0162
##  7 Ida       0.0151
##  8 Alice     0.0145
##  9 Bertha    0.0135
## 10 Sarah     0.0132
## #  with 1,924,655 more rows

Your Turn 5

Alter the code to select just the n column:

select(babynames, n)

## # A tibble: 1,924,665 x 1
##        n
##    <int>
##  1  7065
##  2  2604
##  3  2003
##  4  1939
##  5  1746
##  6  1578
##  7  1472
##  8  1414
##  9  1320
## 10  1288
## #  with 1,924,655 more rows

Filter

filter(babynames, name == "Amelia")

## # A tibble: 169 x 5
##     year sex   name       n    prop
##    <dbl> <chr> <chr>  <int>   <dbl>
##  1  1880 F     Amelia   221 0.00226
##  2  1881 F     Amelia   235 0.00238
##  3  1882 F     Amelia   252 0.00218
##  4  1883 F     Amelia   262 0.00218
##  5  1884 F     Amelia   315 0.00229
##  6  1885 F     Amelia   298 0.00210
##  7  1886 F     Amelia   326 0.00212
##  8  1887 F     Amelia   344 0.00221
##  9  1888 F     Amelia   358 0.00189
## 10  1889 F     Amelia   346 0.00183
## #  with 159 more rows
…
Girls named Sea

filter(babynames, name == "Sea", sex == "F")

## # A tibble: 2 x 5
##    year sex   name      n       prop
##   <dbl> <chr> <chr> <int>      <dbl>
## 1  1982 F     Sea       5 0.00000276
## 2  1998 F     Sea       5 0.00000258

Arrange

arrange(babynames, n)

## # A tibble: 1,924,665 x 5
##     year sex   name          n      prop
##    <dbl> <chr> <chr>     <int>     <dbl>
##  1  1880 F     Adelle        5 0.0000512
##  2  1880 F     Adina         5 0.0000512
##  3  1880 F     Adrienne      5 0.0000512
##  4  1880 F     Albertine     5 0.0000512
##  5  1880 F     Alys          5 0.0000512
##  6  1880 F     Ana           5 0.0000512
##  7  1880 F     Araminta      5 0.0000512
##  8  1880 F     Arthur        5 0.0000512
##  9  1880 F     Birtha        5 0.0000512
## 10  1880 F     Bulah         5 0.0000512
## #  with 1,924,655 more rows

Your Turn 8

Arrange babynames by n. Add prop as a second (tie breaking) variable to arrange on. Can you tell what the smallest value of n is?

arrange(babynames, n, prop)

## # A tibble: 1,924,665 x 5
##     year sex   name            n       prop
##    <dbl> <chr> <chr>       <int>      <dbl>
##  1  2007 M     Aaban           5 0.00000226
##  2  2007 M     Aareon          5 0.00000226
##  3  2007 M     Aaris           5 0.00000226
##  4  2007 M     Abd             5 0.00000226
##  5  2007 M     Abdulazeez      5 0.00000226
##  6  2007 M     Abdulhadi       5 0.00000226
##  7  2007 M     Abdulhamid      5 0.00000226
##  8  2007 M     Abdulkadir      5 0.00000226
##  9  2007 M     Abdulraheem     5 0.00000226
## 10  2007 M     Abdulrahim      5 0.00000226
## #  with 1,924,655 more rows

desc

arrange(babynames, desc(n))

## # A tibble: 1,924,665 x 5
##     year sex   name        n   prop
##    <dbl> <chr> <chr>   <int>  <dbl>
##  1  1947 F     Linda   99686 0.0548
##  2  1948 F     Linda   96209 0.0552
##  3  1947 M     James   94756 0.0510
##  4  1957 M     Michael 92695 0.0424
##  5  1947 M     Robert  91642 0.0493
##  6  1949 F     Linda   91016 0.0518
##  7  1956 M     Michael 90620 0.0423
##  8  1958 M     Michael 90520 0.0420
##  9  1948 M     James   88588 0.0497
## 10  1954 M     Michael 88514 0.0428
## #  with 1,924,655 more rows

Your Turn 9

Use desc() to find the names with the highest prop.

arrange(babynames, desc(prop))

## # A tibble: 1,924,665 x 5
##     year sex   name        n   prop
##    <dbl> <chr> <chr>   <int>  <dbl>
##  1  1880 M     John     9655 0.0815
##  2  1881 M     John     8769 0.0810
##  3  1880 M     William  9532 0.0805
##  4  1883 M     John     8894 0.0791
##  5  1881 M     William  8524 0.0787
##  6  1882 M     John     9557 0.0783
##  7  1884 M     John     9388 0.0765
##  8  1882 M     William  9298 0.0762
##  9  1886 M     John     9026 0.0758
## 10  1885 M     John     8756 0.0755
## #  with 1,924,655 more rows

Steps and the pipe

babynames %>%
  filter(year == 2015, sex == "M") %>%
  select(name, n) %>%
  arrange(desc(n))

## # A tibble: 14,024 x 2
##    name          n
##    <chr>     <int>
##  1 Noah      19613
##  2 Liam      18355
##  3 Mason     16610
##  4 Jacob     15938
##  5 William   15889
##  6 Ethan     15069
##  7 James     14799
##  8 Alexander 14531
##  9 Michael   14413
## 10 Benjamin  13692
## #  with 14,014 more rows
…
Use %>% to write a sequence of functions that:

Filter babynames to just the girls that were born in 2015

Select the name and n columns

Arrange the results so that the most popular names are near the top.

babynames %>% 
  filter(year == 2015, sex == "F") %>% 
  select(name, n) %>% 
  arrange(desc(n))

## # A tibble: 19,074 x 2
##    name          n
##    <chr>     <int>
##  1 Emma      20435
##  2 Olivia    19669
##  3 Sophia    17402
##  4 Ava       16361
##  5 Isabella  15594
##  6 Mia       14892
##  7 Abigail   12390
##  8 Emily     11780
##  9 Charlotte 11390
## 10 Harper    10291
## #  with 19,064 more rows
…
Your Turn 14

Use group_by(), summarise(), and arrange() to display the ten most popular baby names. Compute popularity as the total number of children of a single gender given a name.

babynames %>%
  group_by(name, sex) %>% 
  summarise(total = sum(n)) %>% 
  arrange(desc(total))

## # A tibble: 107,973 x 3
## # Groups:   name [97,310]
##    name    sex     total
##    <chr>   <chr>   <int>
##  1 James   M     5150472
##  2 John    M     5115466
##  3 Robert  M     4814815
##  4 Michael M     4350824
##  5 Mary    F     4123200
##  6 William M     4102604
##  7 David   M     3611329
##  8 Joseph  M     2603445
##  9 Richard M     2563082
## 10 Charles M     2386048
## #  with 107,963 more rows

Ungroup

babynames %>%
  group_by(name, sex) %>% 
  summarise(total = sum(n)) %>% 
  arrange(desc(total))

## # A tibble: 107,973 x 3
## # Groups:   name [97,310]
##    name    sex     total
##    <chr>   <chr>   <int>
##  1 James   M     5150472
##  2 John    M     5115466
##  3 Robert  M     4814815
##  4 Michael M     4350824
##  5 Mary    F     4123200
##  6 William M     4102604
##  7 David   M     3611329
##  8 Joseph  M     2603445
##  9 Richard M     2563082
## 10 Charles M     2386048
## #  with 107,963 more rows

Mutate

babynames %>%
  mutate(percent = round(prop*100, 2))

## # A tibble: 1,924,665 x 6
##     year sex   name          n   prop percent
##    <dbl> <chr> <chr>     <int>  <dbl>   <dbl>
##  1  1880 F     Mary       7065 0.0724    7.24
##  2  1880 F     Anna       2604 0.0267    2.67
##  3  1880 F     Emma       2003 0.0205    2.05
##  4  1880 F     Elizabeth  1939 0.0199    1.99
##  5  1880 F     Minnie     1746 0.0179    1.79
##  6  1880 F     Margaret   1578 0.0162    1.62
##  7  1880 F     Ida        1472 0.0151    1.51
##  8  1880 F     Alice      1414 0.0145    1.45
##  9  1880 F     Bertha     1320 0.0135    1.35
## 10  1880 F     Sarah      1288 0.0132    1.32
## #  with 1,924,655 more rows

Your Turn 16

Use min_rank() and mutate() to rank each row in babynames from largest n to lowest n.

babynames %>% 
  mutate(rank = min_rank(desc(prop)))

## # A tibble: 1,924,665 x 6
##     year sex   name          n   prop  rank
##    <dbl> <chr> <chr>     <int>  <dbl> <int>
##  1  1880 F     Mary       7065 0.0724    14
##  2  1880 F     Anna       2604 0.0267   709
##  3  1880 F     Emma       2003 0.0205  1131
##  4  1880 F     Elizabeth  1939 0.0199  1192
##  5  1880 F     Minnie     1746 0.0179  1427
##  6  1880 F     Margaret   1578 0.0162  1683
##  7  1880 F     Ida        1472 0.0151  1897
##  8  1880 F     Alice      1414 0.0145  2039
##  9  1880 F     Bertha     1320 0.0135  2279
## 10  1880 F     Sarah      1288 0.0132  2387
## #  with 1,924,655 more rows
…
library(nycflights13)
library(lubridate)

## 
## Attaching package: 'lubridate'

## The following object is masked from 'package:base':
## 
##     date

Flights data

flights

## # A tibble: 336,776 x 19
##     year month   day dep_time sched_dep_time dep_delay arr_time sched_arr_time
##    <int> <int> <int>    <int>          <int>     <dbl>    <int>          <int>
##  1  2013     1     1      517            515         2      830            819
##  2  2013     1     1      533            529         4      850            830
##  3  2013     1     1      542            540         2      923            850
##  4  2013     1     1      544            545        -1     1004           1022
##  5  2013     1     1      554            600        -6      812            837
##  6  2013     1     1      554            558        -4      740            728
##  7  2013     1     1      555            600        -5      913            854
##  8  2013     1     1      557            600        -3      709            723
##  9  2013     1     1      557            600        -3      838            846
## 10  2013     1     1      558            600        -2      753            745
## #  with 336,766 more rows, and 11 more variables: arr_delay <dbl>,
## #   carrier <chr>, flight <int>, tailnum <chr>, origin <chr>, dest <chr>,
## #   air_time <dbl>, distance <dbl>, hour <dbl>, minute <dbl>, time_hour <dttm>
…
Add on scales (like scale_colour_brewer())

Add on faceting specifications (like facet_wrap())

Add on coordinate systems (like coord_flip)

Start with Bechdel test data

This data on movies and the Bechdel test was collected by the website FiveThirtyEight. The Bechdel test is a measure of the representation of women in fiction. It asks whether a work features at least two women who talk to each other about something other than a man.

Preview the data.

bechdel

## # A tibble: 1,794 x 15
##     year imdb  title test  clean_test binary budget domgross intgross code 
##    <int> <chr> <chr> <chr> <ord>      <chr>   <int>    <dbl>    <dbl> <chr>
##  1  2013 tt17 21 & nota notalk     FAIL   1.30e7 25682380   4.22e7 2013
##  2  2012 tt13 Dred ok-d ok         PASS   4.50e7 13414714   4.09e7 2012
##  3  2013 tt20 12 Y nota notalk     FAIL   2.00e7 53107035   1.59e8 2013
##  4  2013 tt12 2 Gu nota notalk     FAIL   6.10e7 75612460   1.32e8 2013
##  5  2013 tt04 42    men   men        FAIL   4.00e7 95020213   9.50e7 2013
##  6  2013 tt13 47 R men   men        FAIL   2.25e8 38362475   1.46e8 2013
##  7  2013 tt16 A Go nota notalk     FAIL   9.20e7 67349198   3.04e8 2013
##  8  2013 tt21 Abou ok-d ok         PASS   1.20e7 15323921   8.73e7 2013
##  9  2013 tt18 Admi ok    ok         PASS   1.30e7 18007317   1.80e7 2013
## 10  2013 tt18 Afte nota notalk     FAIL   1.30e8 60522097   2.44e8 2013
## #  with 1,784 more rows, and 5 more variables: budget_2013 <int>,
## #   domgross_2013 <dbl>, intgross_2013 <dbl>, period_code <int>,
## #   decade_code <int>
…
Save the last plot.

ggsave("my-plot.png")

## Saving 7 x 5 in image

ggsave("my-plot.pdf", width = 6, height = 6)

Data types(*)

What kind of object is the marital variable?

gss_cat

## # A tibble: 21,483 x 9
##     year marital     age race  rincome    partyid     relig     denom    tvhours
##    <int> <fct>     <int> <fct> <fct>      <fct>       <fct>     <fct>      <int>
##  1  2000 Never ma    26 White $8000 to  Ind,near r Protesta Souther      12
##  2  2000 Divorced     48 White $8000 to  Not str re Protesta Baptist      NA
##  3  2000 Widowed      67 White Not appli Independent Protesta No deno       2
##  4  2000 Never ma    39 White Not appli Ind,near r Orthodox Not app       4
##  5  2000 Divorced     25 White Not appli Not str de None      Not app       1
##  6  2000 Married      25 White $20000 -  Strong dem Protesta Souther      NA
##  7  2000 Never ma    36 White $25000 or Not str re Christian Not app       3
##  8  2000 Divorced     44 White $7000 to  Ind,near d Protesta Luthera      NA
##  9  2000 Married      44 White $25000 or Not str de Protesta Other          0
## 10  2000 Married      47 White $25000 or Strong rep Protesta Souther       3
## #  with 21,473 more rows
…
